1 10 20
100 200 125
201 210 89
900 1000 174
20 331 144
9 230 125
52 70 113
40 657 145
89 184 125
81 502 144
43 821 171
94 850 171
22 553 144
98 368 144
19 896 179
64 198 125
31 152 122
51 143 122
1 67 113
63 98 119
72 513 144
90 124 119
28 632 144
50 263 128
98 445 144
12 150 122
70 283 128
23 567 144
60 760 171
99 452 144
37 417 144
14 376 144
77 510 144
85 240 128
83 449 144
88 581 144
7 870 171
26 749 171
51 772 171
38 654 145
81 996 179
65 994 179
68 537 144
60 951 179
69 478 144
66 814 171
66 113 119
4 277 128
79 433 144
4 215 125
69 705 171
69 729 171
50 930 179
100 502 144
13 341 144
60 73 116
71 590 144
23 388 144
93 822 171
39 50 110
29 504 144
36 176 125
14 204 125
55 915 179
88 677 145
92 154 122
58 759 171
3 169 122
45 944 179
45 307 128
28 352 144
50 524 144
19 321 131
10 443 144
91 686 145
36 454 144
49 896 179
77 410 144
27 429 144
92 402 144
28 650 145
48 925 179
62 175 125
9 659 145
79 486 144
3 935 179
53 555 144
61 921 179
70 264 128
36 711 171
77 693 145
86 427 144
8 15 20
82 576 144
96 517 144
61 565 144
98 130 122
96 138 122
86 190 125
74 488 144
6 185 125
20 185 125
72 759 171
19 685 145
11 290 128
40 372 144
48 232 128
37 704 171
85 97 119
21 198 125
54 565 144
96 759 171
76 555 144
14 851 171
98 285 128
10 866 171
51 471 144
67 597 144
96 365 144
61 964 179
52 376 144
79 980 179
86 958 179
86 780 171
90 969 179
32 630 144
48 615 144
31 365 144
73 775 171
54 616 144
50 755 171
68 333 144
82 418 144
36 876 179
84 305 128
5 486 144
42 585 144
98 293 128
74 87 111
83 807 171
90 401 144
83 243 128
15 596 144
35 662 145
53 903 179
93 543 144
31 624 144
52 699 145
73 562 144
96 321 131
20 958 179
67 383 144
83 948 179
29 576 144
1 999999 525
1 999999 525
1 999999 525
