1 10 20
100 200 125
201 210 89
900 1000 174
10 1 20
200 100 125
210 201 89
1000 900 174
1 1 1
2 2 2
3 3 8
4 4 3
5 5 6
6 6 9
7 7 17
8 8 4
9 9 20
10 10 7
1 101 119
101 200 125
201 300 128
301 400 144
401 500 142
501 600 137
601 700 145
701 800 171
801 900 179
901 1000 174
1 50 112
2 50 112
3 50 112
4 50 112
5 50 112
11 12 15
12 13 10
14 15 18
16 17 13
18 19 21
20 21 8
22 23 16
24 25 24
26 27 112
999999 999999 259
999998 999998 259
999997 999997 114
999996 999996 114
999995 999995 259
999994 999994 114
999993 999993 166
999992 999992 114
999991 999991 166
999990 999990 166
999990 999999 259
999900 999999 259
1 100000 351
1 100 119
2 88 116
6 88 116
5 70 113
9 20 21
17 160 122
23 660 145
99 189 125
93 409 144
65 1000 179
111 209 125
49 208 125
479 590 142
37 397 144
496 968 179
32 356 144
542 577 137
469 490 142
691 905 179
589 937 179
396 904 179
291 307 118
97 402 144
456 511 142
818 919 179
365 624 142
345 371 126
560 679 145
309 899 179
909 1000 174
204 987 179
382 590 142
457 642 142
379 875 179
395 475 134
698 975 179
102 476 144
351 379 126
789 987 179
46 473 144
590 1000 179
395 597 142
50 989 179
674 938 179
593 999 179
294 690 145
485 968 179
58 789 171
810 1000 179
23 754 171
568 964 179
745 980 179
64 99 119
437 963 179
